<?xml version="1.0" encoding="utf-8"?>
<!-- Generator: Adobe Illustrator 22.1.0, SVG Export Plug-In . SVG Version: 6.00 Build 0)  -->
<svg version="1.1" id="Layer_1" xmlns="http://www.w3.org/2000/svg" xmlns:xlink="http://www.w3.org/1999/xlink" x="0px" y="0px"
	 viewBox="0 0 14 30" style="enable-background:new 0 0 14 30;" xml:space="preserve">
<style type="text/css">
	.st0{fill:#FFFFFF;}
</style>
<g>
	<path class="st0" d="M1,30c-0.2,0-0.5-0.1-0.7-0.2c-0.4-0.4-0.5-1-0.1-1.4L11.7,15L0.2,1.7c-0.4-0.4-0.3-1.1,0.1-1.4
		c0.4-0.4,1-0.3,1.4,0.1l12,14c0.3,0.4,0.3,0.9,0,1.3l-12,14C1.6,29.9,1.3,30,1,30z"/>
</g>
</svg>
