{
	"arrow-down": {
		"data": "<svg xmlns=\"http://www.w3.org/2000/svg\" viewBox=\"0 0 30 14\"><path d=\"M15 14c-.2 0-.5-.1-.7-.2l-14-12C-.1 1.4-.2.8.2.4c.4-.4 1-.5 1.4-.1L15 11.7 28.3.2c.4-.4 1-.3 1.4.1.4.4.3 1.1-.1 1.4l-14 12c-.1.2-.4.3-.6.3z\"/></svg>",
		"info": {}
	},
	"arrow-left": {
		"data": "<svg xmlns=\"http://www.w3.org/2000/svg\" viewBox=\"0 0 14 30\"><path d=\"M13 30c-.3 0-.6-.1-.8-.3l-12-14c-.3-.4-.3-.9 0-1.3l12-14c.4-.4 1-.5 1.4-.1.4.4.5 1 .1 1.4L2.3 15l11.4 13.3c.4.4.3 1-.1 1.4-.1.2-.4.3-.6.3z\"/></svg>",
		"info": {}
	},
	"arrow-right": {
		"data": "<svg xmlns=\"http://www.w3.org/2000/svg\" viewBox=\"0 0 14 30\"><path d=\"M1 30c-.2 0-.5-.1-.7-.2-.4-.4-.5-1-.1-1.4L11.7 15 .2 1.7C-.2 1.3-.1.6.3.3c.4-.4 1-.3 1.4.1l12 14c.3.4.3.9 0 1.3l-12 14c-.1.2-.4.3-.7.3z\"/></svg>",
		"info": {}
	},
	"arrow-top": {
		"data": "<svg xmlns=\"http://www.w3.org/2000/svg\" viewBox=\"0 0 30 14\"><path d=\"M29 14c-.2 0-.5-.1-.7-.2L15 2.3 1.7 13.8c-.4.4-1.1.3-1.4-.1-.4-.4-.3-1 .1-1.4l14-12c.4-.3.9-.3 1.3 0l14 12c.4.4.5 1 .1 1.4-.2.2-.5.3-.8.3z\"/></svg>",
		"info": {}
	},
	"car": {
		"data": "<svg xmlns=\"http://www.w3.org/2000/svg\" viewBox=\"0 0 56.184 32.365\"><defs><style>.cls-1{fill:none;stroke-miterlimit:10}.cls-2,.cls-3{stroke:none}.cls-3{fill:rgba(255,255,255,.46)}</style></defs><g id=\"car\" transform=\"translate(.953 1.351)\"><g id=\"Path_2\" data-name=\"Path 2\" class=\"cls-1\"><path class=\"cls-2\" d=\"M4.27 21.162h31.759v4.388H12.923a4.93 4.93 0 0 0-9.241-.083 2.109 2.109 0 0 1-1.518-2.024v-.186a2.113 2.113 0 0 1 2.106-2.095zm7.53 5.585a3.665 3.665 0 1 1-3.665-3.665 3.666 3.666 0 0 1 3.665 3.665zm-1.125 0a2.55 2.55 0 1 0-2.55 2.55 2.556 2.556 0 0 0 2.547-2.55zm38.212 0a3.665 3.665 0 1 1-3.665-3.665 3.666 3.666 0 0 1 3.662 3.665zm-1.125 0a2.55 2.55 0 1 0-2.55 2.55 2.556 2.556 0 0 0 2.546-2.55zm6.474-10.531v8.3a.7.7 0 0 1-.7.7h-3.672a4.927 4.927 0 0 0-8.983 0h-2.467a.7.7 0 0 1-.7-.7V7.843a.7.7 0 0 1 .7-.7h9.23a1.729 1.729 0 0 1 1.4.7zm-3.263-1.827L47.81 9.154c-.248-.454-.547-.7-1.611-.7h-5.73a.7.7 0 0 0-.7.7v5.235a.7.7 0 0 0 .7.7h9.788a.705.705 0 0 0 .712-.7zm2.726 7.971a.65.65 0 1 0-1.3 0v1.24a.65.65 0 1 0 1.3 0zM.048 19.912h35.981V.048H.048z\" transform=\"translate(0 -.398)\"/><path class=\"cls-3\" d=\"M45.218 30.413a3.666 3.666 0 1 0-.001-7.333 3.666 3.666 0 0 0 .001 7.333m-.01-6.216a2.55 2.55 0 1 1 .002 5.103 2.55 2.55 0 0 1-.002-5.103M8.132 30.413a3.666 3.666 0 1 0-.002-7.333 3.666 3.666 0 0 0 .002 7.333m-.01-6.216a2.55 2.55 0 1 1 .002 5.103 2.55 2.55 0 0 1-.002-5.103m27.907 1.353v-4.388H4.27c-1.156 0-2.106.95-2.106 2.096v.185c0 .96.64 1.766 1.518 2.024a4.948 4.948 0 0 1 4.605-3.17c2.127 0 3.944 1.363 4.636 3.253h23.106m17.5-.33c.393 0 .703-.32.703-.703v-8.3l-5.183-8.374a1.729 1.729 0 0 0-1.404-.702h-9.23a.696.696 0 0 0-.703.702v16.674c0 .393.31.702.702.702h2.468a4.93 4.93 0 0 1 4.491-2.901 4.947 4.947 0 0 1 4.491 2.901h3.666m-.485-3.51c.36 0 .65.289.65.65v1.24c0 .36-.29.65-.65.65a.648.648 0 0 1-.65-.65v-1.24c0-.361.288-.65.65-.65M40.469 8.452h5.73c1.064 0 1.363.248 1.61.702l3.16 5.235c0 .392-.32.702-.712.702h-9.788a.696.696 0 0 1-.702-.702V9.154c0-.392.31-.702.702-.702m-4.44 11.46V.048H.048v19.864h35.981m9.19 11.5a4.67 4.67 0 0 1-4.636-5.193h-2.169c-.57 0-1.076-.282-1.385-.713v1.044H12.793a4.67 4.67 0 0 1-4.661 4.863 4.67 4.67 0 0 1-4.656-4.964l-.076-.023a3.128 3.128 0 0 1-2.236-2.983v-.185c0-.937.42-1.777 1.08-2.346H-.951V-.952H37.03v7.806a1.701 1.701 0 0 1 1.385-.713h9.23c.88 0 1.683.402 2.207 1.104l.025.035.023.036 5.183 8.374.15.242v8.585c0 .939-.764 1.702-1.702 1.702h-3.677a4.67 4.67 0 0 1-4.636 5.193zm-.011-6.215c-.855 0-1.55.696-1.55 1.55 0 .855.695 1.55 1.55 1.55.855 0 1.55-.695 1.55-1.55 0-.854-.695-1.55-1.55-1.55zm-37.086 0c-.855 0-1.55.696-1.55 1.55 0 .855.695 1.55 1.55 1.55.854 0 1.55-.695 1.55-1.55 0-.854-.696-1.55-1.55-1.55zm32.645-11.106h8.854l-2.667-4.42-.012-.019-.01-.02a.623.623 0 0 0-.066-.104c-.022-.011-.167-.076-.667-.076h-5.432v4.639z\" transform=\"translate(0 -.398)\"/></g></g></svg>",
		"info": {}
	},
	"mail": {
		"data": "<svg xmlns=\"http://www.w3.org/2000/svg\" viewBox=\"0 0 30 22\"><path d=\"M29 22H1c-.6 0-1-.4-1-1V.7C0 .6.1.5.2.4L.5.1C.7 0 .8 0 .9 0h28.2c.1 0 .3 0 .4.1.1.1.2.1.3.3.1.1.1.2.2.3V21c0 .6-.4 1-1 1zM2 20h26V2.9l-12.4 8.9c-.3.2-.8.2-1.2 0L2 2.9V20zM4.1 2L15 9.8 25.9 2H4.1z\"/></svg>",
		"info": {}
	},
	"map": {
		"data": "<svg id=\"Layer_1\" xmlns=\"http://www.w3.org/2000/svg\" viewBox=\"0 0 48.2 42.3\"><style>.st0{fill:#0079c0}</style><path id=\"map\" class=\"st0\" d=\"M48 41.8c-.2.3-.5.4-.8.4H1c-.6 0-1-.5-1-1 0-.1 0-.3.1-.4l6-15.1c.2-.4.5-.6.9-.6h5c.6 0 1 .5 1 1s-.5 1-1 1H7.7L2.5 40.3h43.2l-5.2-13.1h-4.3c-.6 0-1-.5-1-1s.5-1 1-1h5c.4 0 .8.2.9.6l6 15.1c.2.3.1.6-.1.9zM24.7 34c-.4.3-.9.3-1.2 0C23 33.6 11 24.2 11 13.1 11 5.9 16.8 0 24 0s13.1 5.7 13.2 12.9v.2c0 11.1-12 20.5-12.5 20.9zm-.6-32C18 2 13 7 13.1 13.1c0 8.7 8.6 16.7 11 18.8 2.4-2.1 11-10 11-18.8C35.2 7 30.2 2 24.1 2zm-6 11.1c0-3.3 2.7-6 6-6s6 2.7 6 6-2.7 6-6 6-6-2.7-6-6zm10 0c0-2.2-1.8-4-4-4s-4 1.8-4 4 1.8 4 4 4 4-1.8 4-4z\"/></svg>",
		"info": {}
	},
	"ship": {
		"data": "<svg xmlns=\"http://www.w3.org/2000/svg\" viewBox=\"0 0 54.948 33.07\"><defs><style>.cls-1{fill:none;stroke:rgba(255,255,255,.46);stroke-miterlimit:10}</style></defs><g id=\"ship\" transform=\"translate(-.041)\"><path id=\"Path_7\" data-name=\"Path 7\" class=\"cls-1\" d=\"M1.1 115.1l11.62 14.13a1.321 1.321 0 0 1 .127-.051 4.8 4.8 0 0 0 1.019-.586 6.883 6.883 0 0 0 1.312-1.44c.1-.127.191-.255.293-.369a1.138 1.138 0 0 1 .828-.433h.076a1.117 1.117 0 0 1 .8.331c.127.115.242.242.369.369a7.222 7.222 0 0 0 1.9 1.542 4.685 4.685 0 0 0 1.911.433 3.1 3.1 0 0 0 .93-.127h.025a4.192 4.192 0 0 0 2.676-2.039l.93-1.631.242-.408a1.145 1.145 0 0 1 .994-.573 1.177 1.177 0 0 1 .994.561l.293.51c.115.2.229.408.344.6a7.681 7.681 0 0 0 1.351 1.937l.013.013a4.171 4.171 0 0 0 2.676 1.121h.064a4.486 4.486 0 0 0 2.574-.777 8.216 8.216 0 0 0 1.3-1.223c.14-.153.28-.293.42-.446a1.116 1.116 0 0 1 .828-.344h.064a1.142 1.142 0 0 1 .841.433c.115.14.217.293.331.433q.382.516.764.956a4.962 4.962 0 0 0 1.707 1.159 4.418 4.418 0 0 0 .981.255 4.329 4.329 0 0 0 1.631-.064 4.766 4.766 0 0 0 1.672-.715 9.216 9.216 0 0 0 1.414-1.338l.064-.076a1.12 1.12 0 0 1 .841-.37h.089a1.13 1.13 0 0 1 .866.51l.089.14c.229.331.433.65.675.943.038.038.064.076.1.115l4.128-13.366.025-.076L1.1 115.1zm11.123 4.358H9.611v-1.249h2.612zm4.2 0h-2.607v-1.249h2.612zm19.627 2.612a1.338 1.338 0 1 1 1.338-1.338 1.338 1.338 0 0 1-1.338 1.338zm5.1 0a1.338 1.338 0 1 1 1.338-1.338 1.338 1.338 0 0 1-1.342 1.338zm5.1 0a1.338 1.338 0 1 1 1.338-1.338 1.338 1.338 0 0 1-1.345 1.338z\" transform=\"translate(0 -99.998)\"/><path id=\"Rectangle_103\" data-name=\"Rectangle 103\" class=\"cls-1\" transform=\"translate(7.292 7.635)\" d=\"M0 0h13.289v5.899H0z\"/><path id=\"Rectangle_104\" data-name=\"Rectangle 104\" class=\"cls-1\" transform=\"translate(22.811 7.635)\" d=\"M0 0h13.289v5.899H0z\"/><path id=\"Rectangle_105\" data-name=\"Rectangle 105\" class=\"cls-1\" transform=\"translate(38.126 7.661)\" d=\"M0 0h5.797v5.861H0z\"/><path id=\"Rectangle_106\" data-name=\"Rectangle 106\" class=\"cls-1\" transform=\"translate(38.139 3.825)\" d=\"M0 0h5.772v2.536H0z\"/><path id=\"Rectangle_107\" data-name=\"Rectangle 107\" class=\"cls-1\" transform=\"translate(45.274 3.825)\" d=\"M0 0h5.772v2.536H0z\"/><path id=\"Rectangle_108\" data-name=\"Rectangle 108\" class=\"cls-1\" transform=\"translate(45.262 7.661)\" d=\"M0 0h5.797v5.861H0z\"/><path id=\"Rectangle_109\" data-name=\"Rectangle 109\" class=\"cls-1\" transform=\"translate(7.292 .5)\" d=\"M0 0h13.289v5.899H0z\"/><path id=\"Path_8\" data-name=\"Path 8\" class=\"cls-1\" d=\"M56.56 200a10.413 10.413 0 0 1-1.2-1.593 10.308 10.308 0 0 1-1.669 1.58 5.681 5.681 0 0 1-2.077.892 5.8 5.8 0 0 1-2.039.076 5.188 5.188 0 0 1-1.236-.319 6.269 6.269 0 0 1-2.115-1.427c-.42-.459-.79-.981-1.172-1.465a13.5 13.5 0 0 1-1.9 1.822 5.733 5.733 0 0 1-3.2.981h-.076a5.265 5.265 0 0 1-3.453-1.427 11.556 11.556 0 0 1-1.911-2.816 19 19 0 0 1-.293-.51c-.395.675-.777 1.363-1.172 2.039a5.382 5.382 0 0 1-3.351 2.574 4.278 4.278 0 0 1-1.274.178 5.644 5.644 0 0 1-2.4-.548 9.908 9.908 0 0 1-2.586-2.128 10.213 10.213 0 0 1-1.822 2.026 5.827 5.827 0 0 1-3.427 1.172c-.14 0-.28 0-.433-.013a6.644 6.644 0 0 1-2.051-.51 6.9 6.9 0 0 1-1.605-1.032c-.089-.064-.382-.293-.382-.293s-.484.548-.726.764a7.187 7.187 0 0 1-1.21.943 7.738 7.738 0 0 1-1.134.548 7.117 7.117 0 0 1-1.453.357v.038c.166.013.319.013.471.013a7.185 7.185 0 0 0 1.376-.127 5.811 5.811 0 0 0 1.644-.612 7.839 7.839 0 0 0 .7-.42 1.332 1.332 0 0 0 .14-.1c.064-.038.166-.115.166-.115s.268.242.382.357a8.345 8.345 0 0 0 1.351.956 7.09 7.09 0 0 0 2.994.841c.166.013.331.025.5.025a7.249 7.249 0 0 0 3.695-1.108 5.943 5.943 0 0 0 .65-.459 1.35 1.35 0 0 0 .153-.127.153.153 0 0 0 .051-.051c.013 0 .013.013.051.038.064.064.14.115.2.178a5.958 5.958 0 0 0 .79.573 7.754 7.754 0 0 0 2.612 1.045 7.41 7.41 0 0 0 3.542-.166 7.684 7.684 0 0 0 3.517-2.179 7.7 7.7 0 0 0 5.657 2.51 6.7 6.7 0 0 0 1.427-.153 7.994 7.994 0 0 0 2.752-1.121 8.536 8.536 0 0 0 .764-.573c.064-.051.115-.1.178-.153.089.076.178.14.268.217.229.178.459.331.7.484a7.367 7.367 0 0 0 3.822 1.07 7.186 7.186 0 0 0 1.376-.127 7.032 7.032 0 0 0 4.192-2.548A6.612 6.612 0 0 0 58 201.648a5.808 5.808 0 0 0 1.809.255c.166 0 .331 0 .5-.013v-.038c-.064-.013-.127-.013-.191-.025A6.551 6.551 0 0 1 56.56 200z\" transform=\"translate(-7.068 -170.416)\"/></g></svg>",
		"info": {}
	},
	"shopping": {
		"data": "<svg xmlns=\"http://www.w3.org/2000/svg\" viewBox=\"0 0 43.667 43.667\"><defs><style>.cls-1{fill:#0079c0;fill-rule:evenodd}</style></defs><path id=\"shopping-tag\" class=\"cls-1\" d=\"M42.415 20.778L20.789 42.984a2.311 2.311 0 0 1-3.268.009L.673 26.143a2.308 2.308 0 0 1 0-3.259L22.9 1.243A4.765 4.765 0 0 1 25.913 0h15.45a2.307 2.307 0 0 1 2.3 2.3v15.454a4.775 4.775 0 0 1-1.248 3.024zM41.847 2.3a.492.492 0 0 0-.485-.485H25.913a3.022 3.022 0 0 0-1.738.72L1.951 24.179a.476.476 0 0 0-.132.335.483.483 0 0 0 .14.343l16.848 16.85a.493.493 0 0 0 .688 0L41.119 19.5a3.022 3.022 0 0 0 .729-1.746zm-6.822 10.434a4.094 4.094 0 1 1 4.094-4.094 4.1 4.1 0 0 1-4.094 4.094zm0-6.368A2.274 2.274 0 1 0 37.3 8.64a2.277 2.277 0 0 0-2.275-2.274z\" transform=\"translate(0 .001)\"/></svg>",
		"info": {}
	},
	"spec": {
		"data": "<svg xmlns=\"http://www.w3.org/2000/svg\" viewBox=\"0 0 56.044 36.891\"><defs><style>.cls-1{fill:none;stroke:rgba(255,255,255,.46);stroke-miterlimit:10}</style></defs><g id=\"spec\"><path id=\"Path_9\" data-name=\"Path 9\" class=\"cls-1\" d=\"M16.652 40a6.853 6.853 0 1 0 6.909 6.852A6.844 6.844 0 0 0 16.652 40zm0 9.155a2.247 2.247 0 1 1 2.248-2.246 2.184 2.184 0 0 1-2.248 2.246z\" transform=\"translate(-4.076 -17.314)\"/><path id=\"Path_10\" data-name=\"Path 10\" class=\"cls-1\" d=\"M63.5 11v14.042a11.32 11.32 0 0 1 2.247-.112 8.39 8.39 0 0 1 7.414 3.651 2.97 2.97 0 0 1 2.134-.9h6.852V17.4L77.991 11zm15.727 10.784h-7.864v-7.863h5.9l1.966 3.145z\" transform=\"translate(-27.615 -4.602)\"/><path id=\"Path_11\" data-name=\"Path 11\" class=\"cls-1\" d=\"M3.365 16.227S19.6 19.26 21.731 27.067h7.414s.9-4.943 4.718-6.291V4.432h17.3L54.027.5H31.953l-2.7 5.9H.5v3.932h2.921z\"/><path id=\"Path_12\" data-name=\"Path 12\" class=\"cls-1\" d=\"M83.711 44.2a1.028 1.028 0 0 0-.955.73c0 .056-.056.169-.056.225v1.966a1.007 1.007 0 0 0 1.011 1.011h6.852a1.007 1.007 0 0 0 1.011-1.011v-1.91a1.007 1.007 0 0 0-1.011-1.011z\" transform=\"translate(-36.031 -19.155)\"/><path id=\"Path_13\" data-name=\"Path 13\" class=\"cls-1\" d=\"M62.152 40a6.853 6.853 0 1 0 6.909 6.852v-.281a5.947 5.947 0 0 0-.281-1.741A6.965 6.965 0 0 0 62.152 40zm0 9.155a2.247 2.247 0 1 1 2.248-2.246 2.184 2.184 0 0 1-2.248 2.246z\" transform=\"translate(-24.021 -17.314)\"/></g></svg>",
		"info": {}
	},
	"task": {
		"data": "<svg xmlns=\"http://www.w3.org/2000/svg\" viewBox=\"0 0 37.015 46.934\"><defs><style>.cls-1{fill:#0079c0}</style></defs><path id=\"task\" class=\"cls-1\" d=\"M36.862 34.76l-7.529 11.734a.951.951 0 0 1-.684.44h-.1a1.168 1.168 0 0 1-.684-.244l-6.109-5.77a.969.969 0 0 1 1.32-1.418l5.231 4.938L35.2 33.685a1 1 0 0 1 1.369-.293 1.014 1.014 0 0 1 .293 1.368zM7.724 33.245a1.956 1.956 0 1 1 1.956-1.956 1.961 1.961 0 0 1-1.956 1.956zm0-15.645a1.956 1.956 0 1 1 1.956-1.955A1.961 1.961 0 0 1 7.724 17.6zm0 7.822a1.956 1.956 0 1 1 1.956-1.955 1.961 1.961 0 0 1-1.956 1.955zm20.533 6.844H14.569a.978.978 0 1 1 0-1.956h13.689a.978.978 0 0 1 0 1.956zm0-15.645H14.569a.978.978 0 1 1 0-1.956h13.689a.978.978 0 0 1 0 1.956zm0 7.822H14.569a.978.978 0 1 1 0-1.956h13.689a.978.978 0 0 1 0 1.956zm5.818 5.867a.866.866 0 0 1-.831-.978V4.889h-7.088A4.077 4.077 0 0 1 22.2 7.822h-9.342A4.121 4.121 0 0 1 8.9 4.889H1.956v40.089h17.5a.978.978 0 1 1 0 1.956H.978A.981.981 0 0 1 0 45.956V3.911a.981.981 0 0 1 .978-.978h7.773V.978A.981.981 0 0 1 9.729 0h15.6a.981.981 0 0 1 .971.978v1.955h7.773a1.117 1.117 0 0 1 1.124.978v25.422a1.117 1.117 0 0 1-1.121.978zM24.347 1.956h-13.64v1.955a2.073 2.073 0 0 0 2.151 1.956H22.2a2.073 2.073 0 0 0 2.151-1.956V1.956z\"/></svg>",
		"info": {}
	},
	"train": {
		"data": "<svg xmlns=\"http://www.w3.org/2000/svg\" viewBox=\"0 0 58.622 55.119\"><defs><style>.cls-1{fill:none;stroke:rgba(255,255,253,.46);stroke-miterlimit:10}</style></defs><g id=\"train\" transform=\"translate(.5 -47.5)\"><g id=\"Group_49\" data-name=\"Group 49\" transform=\"translate(0 48)\"><path id=\"Path_3\" data-name=\"Path 3\" class=\"cls-1\" d=\"M42.166 142.06H6.587c-2.891-2.029-3.391-10.173 1.7-11.7v-3.56h6.782v3.391h27.125\" transform=\"translate(-3.196 -104.897)\"/><path id=\"Path_4\" data-name=\"Path 4\" class=\"cls-1\" d=\"M146.3 114.6v18.651h15.26v-13.564l1.7-1.7V114.6zm10.173 10.173h-6.782v-6.782h6.782v6.782z\" transform=\"translate(-105.634 -96.088)\"/><path id=\"Path_5\" data-name=\"Path 5\" class=\"cls-1\" d=\"M34.933 54.532a4.591 4.591 0 0 0 .723-2.446A3.918 3.918 0 0 0 31.959 48a3.918 3.918 0 0 0-3.7 4.086 4.331 4.331 0 0 0 1.473 3.28 5.128 5.128 0 0 0-1.557 3.891 2.655 2.655 0 0 0 .083.806 3.337 3.337 0 0 0-2.78 2.335c-6.365.417-7.283 5.809-7.283 5.809h3.586s3.7-.723 5.087-2.335a2.982 2.982 0 0 0 1.668.417 3.281 3.281 0 0 0 3.064-1.945 3.986 3.986 0 0 0 1.2.195 5.043 5.043 0 0 0 4.8-5.309 5.33 5.33 0 0 0-2.668-4.7z\" transform=\"translate(-13.141 -48)\"/><path id=\"Path_6\" data-name=\"Path 6\" class=\"cls-1\" d=\"M5.087 189.5h-1.7a3.391 3.391 0 1 0 0 6.782h3.395a6.782 6.782 0 1 0 13.565 0h1.7a6.782 6.782 0 1 0 13.565 0h1.7a6.782 6.782 0 1 0 13.565 0h5.087V187.8H5.087zm8.478 11.869a5.087 5.087 0 0 1 0-10.173 5.087 5.087 0 0 1 0 10.173zm15.26 0a5.087 5.087 0 1 1 5.087-5.087 5.037 5.037 0 0 1-5.087 5.087zm15.232 0a5.087 5.087 0 1 1 5.087-5.087 4.986 4.986 0 0 1-5.087 5.087z\" transform=\"translate(0 -148.941)\"/></g></g></svg>",
		"info": {}
	},
	"van": {
		"data": "<svg xmlns=\"http://www.w3.org/2000/svg\" viewBox=\"0 0 48.201 31.13\"><defs><style>.cls-1{fill:#0079c0;fill-rule:evenodd}</style></defs><path id=\"van\" class=\"cls-1\" d=\"M45.623 26.108h-1.54a6 6 0 0 1-11.847 0H17.974a6 6 0 0 1-11.847 0H2.553A2.556 2.556 0 0 1 0 23.555V2.519A2.523 2.523 0 0 1 2.521 0h29.751a5 5 0 0 1 4.263 2.413l5.332 8.846 3.052 1.341a5.844 5.844 0 0 1 3.281 5.261v5.669a2.582 2.582 0 0 1-2.577 2.578zm-7.463 3.014a4.017 4.017 0 1 0-4.017-4.022 4.022 4.022 0 0 0 4.016 4.022zm-26.109 0A4.017 4.017 0 1 0 8.034 25.1a4.022 4.022 0 0 0 4.016 4.022zM34.813 3.447a2.979 2.979 0 0 0-2.542-1.44h-5.158v9.038h12.28zm11.38 14.413a3.827 3.827 0 0 0-2.128-3.442l-3.1-1.365H26.109a1 1 0 0 1-1-1V2.007H2.521a.511.511 0 0 0-.512.511v21.037a.551.551 0 0 0 .544.544h3.574a6 6 0 0 1 11.847 0h14.262a6 6 0 0 1 11.847 0h1.539a.579.579 0 0 0 .57-.57z\" transform=\"translate(0 .001)\"/></svg>",
		"info": {}
	}
}