<?xml version="1.0" encoding="utf-8"?>
<!-- Generator: Adobe Illustrator 22.1.0, SVG Export Plug-In . SVG Version: 6.00 Build 0)  -->
<svg version="1.1" id="Layer_1" xmlns="http://www.w3.org/2000/svg" xmlns:xlink="http://www.w3.org/1999/xlink" x="0px" y="0px"
	 viewBox="0 0 30 14" style="enable-background:new 0 0 30 14;" xml:space="preserve">
<path d="M29,14c-0.2,0-0.5-0.1-0.7-0.2L15,2.3L1.7,13.8c-0.4,0.4-1.1,0.3-1.4-0.1c-0.4-0.4-0.3-1,0.1-1.4l14-12
	c0.4-0.3,0.9-0.3,1.3,0l14,12c0.4,0.4,0.5,1,0.1,1.4C29.6,13.9,29.3,14,29,14z"/>
</svg>
