<svg xmlns="http://www.w3.org/2000/svg" viewBox="0 0 43.667 43.667">
  <defs>
    <style>
      .cls-1 {
        fill: #0079c0;
        fill-rule: evenodd;
      }
    </style>
  </defs>
  <path id="shopping-tag" class="cls-1" d="M42.415,20.778,20.789,42.984a2.311,2.311,0,0,1-3.268.009L.673,26.143a2.308,2.308,0,0,1,0-3.259L22.9,1.243A4.765,4.765,0,0,1,25.913,0h15.45a2.307,2.307,0,0,1,2.3,2.3V17.754A4.775,4.775,0,0,1,42.415,20.778ZM41.847,2.3a.492.492,0,0,0-.485-.485H25.913a3.022,3.022,0,0,0-1.738.72L1.951,24.179a.476.476,0,0,0-.132.335.483.483,0,0,0,.14.343L18.807,41.707a.493.493,0,0,0,.688,0L41.119,19.5a3.022,3.022,0,0,0,.729-1.746ZM35.025,12.734A4.094,4.094,0,1,1,39.119,8.64,4.1,4.1,0,0,1,35.025,12.734Zm0-6.368A2.274,2.274,0,1,0,37.3,8.64,2.277,2.277,0,0,0,35.025,6.366Z" transform="translate(0 0.001)"/>
</svg>
