<svg xmlns="http://www.w3.org/2000/svg" viewBox="0 0 48.201 31.13">
  <defs>
    <style>
      .cls-1 {
        fill: #0079c0;
        fill-rule: evenodd;
      }
    </style>
  </defs>
  <path id="van" class="cls-1" d="M45.623,26.108H44.083a6,6,0,0,1-11.847,0H17.974a6,6,0,0,1-11.847,0H2.553A2.556,2.556,0,0,1,0,23.555V2.519A2.523,2.523,0,0,1,2.521,0H32.272a5,5,0,0,1,4.263,2.413l5.332,8.846L44.919,12.6A5.844,5.844,0,0,1,48.2,17.861v5.669A2.582,2.582,0,0,1,45.623,26.108Zm-7.463,3.014A4.017,4.017,0,1,0,34.143,25.1,4.022,4.022,0,0,0,38.159,29.122Zm-26.109,0A4.017,4.017,0,1,0,8.034,25.1,4.022,4.022,0,0,0,12.05,29.122ZM34.813,3.447a2.979,2.979,0,0,0-2.542-1.44H27.113v9.038h12.28Zm11.38,14.413a3.827,3.827,0,0,0-2.128-3.442l-3.1-1.365H26.109a1,1,0,0,1-1-1V2.007H2.521a.511.511,0,0,0-.512.511V23.555a.551.551,0,0,0,.544.544H6.127a6,6,0,0,1,11.847,0H32.236a6,6,0,0,1,11.847,0h1.539a.579.579,0,0,0,.57-.57Z" transform="translate(0 0.001)"/>
</svg>
